reqatt pcdata: reqatt data
reqatt att: (val1)
defatt pcdata: defatt data
defatt att: (val1)
defatt pcdata: defatt data
defatt att: (val2)
optatt pcdata: optatt data
optatt att: (val1)
optatt pcdata: optatt data
optatt att: (no att given)
foo pcdata: foo start data
    
    
    
    
    
foo end data.
retval = 0
